module gitlab.com/aonahara/archive-next

go 1.17

require (
	github.com/alicebob/miniredis/v2 v2.18.0
	github.com/gomodule/redigo v1.8.8
	github.com/rs/cors v1.8.2
	github.com/sethvargo/go-envconfig v0.4.0
	github.com/stretchr/testify v1.7.0
	gopkg.in/yaml.v2 v2.4.0
	gorm.io/driver/postgres v1.2.3
	gorm.io/driver/sqlite v1.2.6
	gorm.io/gorm v1.22.5
)

require (
	github.com/alicebob/gopher-json v0.0.0-20200520072559-a9ecdc9d1d3a // indirect
	github.com/davecgh/go-spew v1.1.1 // indirect
	github.com/jackc/chunkreader/v2 v2.0.1 // indirect
	github.com/jackc/pgconn v1.10.1 // indirect
	github.com/jackc/pgio v1.0.0 // indirect
	github.com/jackc/pgpassfile v1.0.0 // indirect
	github.com/jackc/pgproto3/v2 v2.2.0 // indirect
	github.com/jackc/pgservicefile v0.0.0-20200714003250-2b9c44734f2b // indirect
	github.com/jackc/pgtype v1.9.0 // indirect
	github.com/jackc/pgx/v4 v4.14.0 // indirect
	github.com/jinzhu/inflection v1.0.0 // indirect
	github.com/jinzhu/now v1.1.4 // indirect
	github.com/mattn/go-sqlite3 v1.14.9 // indirect
	github.com/pmezard/go-difflib v1.0.0 // indirect
	github.com/yuin/gopher-lua v0.0.0-20210529063254-f4c35e4016d9 // indirect
	golang.org/x/crypto v0.0.0-20210921155107-089bfa567519 // indirect
	golang.org/x/text v0.3.7 // indirect
	gopkg.in/yaml.v3 v3.0.0-20200313102051-9f266ea9e77c // indirect
)
